{
    "filter": {
    },
    "states": [
        {
            "conditions": [
                {
                    "field": "$scope.data.status",
                    "operator": "===",
                    "type": "system",
                    "value": "'active'"
                }
            ],
            "definedActions": {
                "actions": [
                    {
                        "id": "New Oppty",
                        "type": "Vlocity Action"
                    },
                    {
                        "id": "New Task",
                        "type": "Vlocity Action"
                    },
                    {
                        "id": "Extend Payment Date",
                        "type": "Vlocity Action"
                    }
                ]
            },
            "fields": [
            ],
            "name": "Active",
            "templateUrl": "SAMPLE profile-account-info"
        }
    ],
    "title": "Account Info"
}