{
    "%vlocity_namespace%__ActionClassName__c": "SetPricesToZero",
    "%vlocity_namespace%__Description__c": "Sets the One Time and Recurring Price to Zero",
    "Name": "Sample SetPricesToZero",
    "RecordTypeId": {
        "DeveloperName": "ClassBased",
        "SobjectType": "%vlocity_namespace%__CalculationProcedure__c",
        "VlocityDataPackType": "VlocityLookupMatchingKeyObject",
        "VlocityLookupRecordSourceKey": "RecordType/%vlocity_namespace%__CalculationProcedure__c/ClassBased",
        "VlocityRecordSObjectType": "RecordType"
    },
    "VlocityDataPackType": "SObject",
    "VlocityRecordSObjectType": "%vlocity_namespace%__CalculationProcedure__c",
    "VlocityRecordSourceKey": "%vlocity_namespace%__CalculationProcedure__c/Sample SetPricesToZero"
}