{
    "%vlocity_namespace%__Definition__c": "Interaction-Campaign-Story.json",
    "%vlocity_namespace%__Type__c": "",
    "Name": "Interaction Campaign Story",
    "VlocityDataPackType": "SObject",
    "VlocityRecordSObjectType": "%vlocity_namespace%__VlocityCard__c",
    "VlocityRecordSourceKey": "%vlocity_namespace%__VlocityCard__c/Interaction Campaign Story"
}