{
    "%vlocity_namespace%__Definition__c": "Task-Story.json",
    "%vlocity_namespace%__Type__c": "",
    "Name": "Task Story",
    "VlocityDataPackType": "SObject",
    "VlocityRecordSObjectType": "%vlocity_namespace%__VlocityCard__c",
    "VlocityRecordSourceKey": "%vlocity_namespace%__VlocityCard__c/Task Story"
}