{
    "%vlocity_namespace%__Definition__c": "comp-assets-contract.json",
    "%vlocity_namespace%__Type__c": "",
    "Name": "comp-assets-contract",
    "VlocityDataPackType": "SObject",
    "VlocityRecordSObjectType": "%vlocity_namespace%__VlocityCard__c",
    "VlocityRecordSourceKey": "%vlocity_namespace%__VlocityCard__c/comp-assets-contract"
}