{
    "%vlocity_namespace%__ApprovedBy__c": "",
    "%vlocity_namespace%__ApprovedOn__c": "",
    "%vlocity_namespace%__CategoryData__c": "",
    "%vlocity_namespace%__ChangeDetectorImplementation__c": "",
    "%vlocity_namespace%__ClassId__c": "",
    "%vlocity_namespace%__EffectiveDate__c": "",
    "%vlocity_namespace%__EndDate__c": "",
    "%vlocity_namespace%__GlobalKey__c": "",
    "%vlocity_namespace%__HeaderData__c": "",
    "%vlocity_namespace%__HelpText__c": "",
    "%vlocity_namespace%__IsConfigurable__c": false,
    "%vlocity_namespace%__IsLocationDependent__c": false,
    "%vlocity_namespace%__IsNotAssetizable__c": false,
    "%vlocity_namespace%__IsOrderable__c": false,
    "%vlocity_namespace%__Modification__c": "",
    "%vlocity_namespace%__ObjectTypeId__c": "",
    "%vlocity_namespace%__ParentClassId__c": "",
    "%vlocity_namespace%__ProductSpecId__c": "",
    "%vlocity_namespace%__ProductTemplateProductId__c": "",
    "%vlocity_namespace%__Scope__c": "",
    "%vlocity_namespace%__SpecificationType__c": "",
    "%vlocity_namespace%__StandardPremium__c": "",
    "%vlocity_namespace%__Status__c": "",
    "%vlocity_namespace%__SubType__c": "",
    "%vlocity_namespace%__TimeToLive__c": "",
    "%vlocity_namespace%__TrackAsAgreement__c": false,
    "%vlocity_namespace%__Type__c": "",
    "%vlocity_namespace%__VendorAccountId__c": "",
    "AccessConfiguration__c": "",
    "AccessId__c": "",
    "AccessSpeed__c": "",
    "Access_Type__c": "",
    "Alteration__c": "",
    "Auto_Recurrance__c": false,
    "CPESupplier__c": "",
    "CanUseQuantitySchedule": true,
    "CanUseRevenueSchedule": true,
    "Category__c": "",
    "ChargeZone__c": "",
    "ClassOfService__c": "",
    "Color__c": "",
    "ContractTerm__c": "",
    "Description": "Add Call Me and your meeting call you! You can receive a call at the number you choose. Anser and yo're in! No dial-in, no passcodes. Or phone in - it's toll free!Attend from the US, Canada, and Western Europe\n\nRate .12 per minute",
    "DesignCode__c": "",
    "EquipmentPaymentOption__c": "",
    "ExcessUsageModel__c": "",
    "Family": "WebEx Meetings Premium",
    "GrantMeasurementType__c": "",
    "GrantUnits__c": "",
    "Grant_Amount_Limit__c": "",
    "Grant_Period_Units__c": "",
    "Grant_Type__c": "",
    "Grant_Value__c": "",
    "Image__c": "",
    "InternetAccessType__c": "",
    "IsActive": false,
    "IsBoltOn__c": false,
    "ManagementLevel__c": "",
    "MemorySize__c": "",
    "MulticastSpeed__c": "",
    "Name": "Call Me Pay-as-you-go",
    "NetworkId__c": "",
    "NumberOfQuantityInstallments": "",
    "NumberOfRevenueInstallments": "",
    "OLO_Name__c": "",
    "PhoneNumber__c": "",
    "PortId__c": "",
    "ProductCode": "WBXCMPYG",
    "QuantityInstallmentPeriod": "",
    "QuantityScheduleType": "",
    "RecordTypeId": "",
    "RedeemableCode__c": "",
    "RevenueInstallmentPeriod": "",
    "RevenueScheduleType": "",
    "RoamingRegions__c": "",
    "Rollover__c": "",
    "SecretNumber__c": "",
    "ServiceAssuranceLevel__c": "",
    "ServiceID__c": "",
    "ServiceState__c": "",
    "Shareable__c": "",
    "TimePlan__c": "",
    "Valid_Grant_Period__c": "",
    "Valid_Period_Units__c": "",
    "VendorName__c": "",
    "VlocityDataPackType": "SObject",
    "VlocityRecordSObjectType": "Product2",
    "VlocityRecordSourceKey": "VlocityRecordSourceKey:01t7F000003M6PEQA0"
}