[
    {
        "%vlocity_namespace%__CalculationMatrixId__c": {
            "Name": "Sample Office Internet Solution Attribute Based Pricing",
            "VlocityDataPackType": "VlocityLookupMatchingKeyObject",
            "VlocityLookupRecordSourceKey": "%vlocity_namespace%__CalculationMatrix__c/Sample Office Internet Solution Attribute Based Pricing",
            "VlocityRecordSObjectType": "%vlocity_namespace%__CalculationMatrix__c"
        },
        "%vlocity_namespace%__CalculationProcedureId__c": {
            "Name": "Sample Attribute Based Pricing (Quote)",
            "VlocityDataPackType": "VlocityMatchingKeyObject",
            "VlocityMatchingRecordSourceKey": "%vlocity_namespace%__CalculationProcedure__c/Sample Attribute Based Pricing (Quote)",
            "VlocityRecordSObjectType": "%vlocity_namespace%__CalculationProcedure__c"
        },
        "%vlocity_namespace%__CalculationProcedureVersionId__c": {
            "%vlocity_namespace%__CalculationProcedureId__r.Name": "Sample Attribute Based Pricing (Quote)",
            "%vlocity_namespace%__VersionNumber__c": 1,
            "VlocityDataPackType": "VlocityMatchingKeyObject",
            "VlocityMatchingRecordSourceKey": "%vlocity_namespace%__CalculationProcedureVersion__c/1/%vlocity_namespace%__CalculationProcedure__c/Sample Attribute Based Pricing (Quote)",
            "VlocityRecordSObjectType": "%vlocity_namespace%__CalculationProcedureVersion__c"
        },
        "%vlocity_namespace%__Function__c": "Matrix Lookup",
        "%vlocity_namespace%__Input__c": "[{\"name\":\"Product\",\"listValues\":null,\"label\":null,\"dataType\":\"Text\",\"columnKey\":\"52bd35\"},{\"name\":\"DownloadSpeed\",\"listValues\":null,\"label\":null,\"dataType\":\"Text\",\"columnKey\":\"8da511\"},{\"name\":\"UploadSpeed\",\"listValues\":null,\"label\":null,\"dataType\":\"Text\",\"columnKey\":\"f7d35e\"}]",
        "%vlocity_namespace%__IsIncludedInResult__c": false,
        "%vlocity_namespace%__OutputJSON__c": "[{\"name\":\"OneTimeChargeOverride\",\"listValues\":null,\"label\":null,\"dataType\":\"Currency\",\"columnKey\":\"3ca528\"},{\"name\":\"RecurringChargeOverride\",\"listValues\":null,\"label\":null,\"dataType\":\"Currency\",\"columnKey\":\"428b95\"}]",
        "%vlocity_namespace%__OutputMappingJSON__c": "{\"OneTimeChargeOverride\":\"SampleOfficeInternetSolutionAttributeBasedPricing__OneTimeChargeOverride\",\"RecurringChargeOverride\":\"SampleOfficeInternetSolutionAttributeBasedPricing__RecurringChargeOverride\"}",
        "%vlocity_namespace%__Sequence__c": 1,
        "VlocityDataPackType": "SObject",
        "VlocityRecordSObjectType": "%vlocity_namespace%__CalculationProcedureStep__c"
    },
    {
        "%vlocity_namespace%__CalculationFormulaTags__c": "[{\"text\":\"OneTimeChargeOverride ( Sample Office Internet Solution Attribute Based Pricing )\",\"alias\":\"SampleOfficeInternetSolutionAttributeBasedPricing__OneTimeChargeOverride\",\"userDefined\":false,\"dataType\":\"Currency\"},{\"text\":\"*\",\"alias\":\"*\"},{\"text\":\"(\",\"alias\":\"(\"},{\"text\":\"One\",\"alias\":\"One\"},{\"text\":\"-\",\"alias\":\"-\"},{\"text\":\"OneTimeManualDiscountPercent\",\"alias\":\"OneTimeManualDiscountPercent\",\"userDefined\":true,\"dataType\":\"Percent\"},{\"text\":\")\",\"alias\":\")\"}]",
        "%vlocity_namespace%__CalculationFormula__c": "SampleOfficeInternetSolutionAttributeBasedPricing__OneTimeChargeOverride * ( One - OneTimeManualDiscountPercent )",
        "%vlocity_namespace%__CalculationProcedureId__c": {
            "Name": "Sample Attribute Based Pricing (Quote)",
            "VlocityDataPackType": "VlocityMatchingKeyObject",
            "VlocityMatchingRecordSourceKey": "%vlocity_namespace%__CalculationProcedure__c/Sample Attribute Based Pricing (Quote)",
            "VlocityRecordSObjectType": "%vlocity_namespace%__CalculationProcedure__c"
        },
        "%vlocity_namespace%__CalculationProcedureVersionId__c": {
            "%vlocity_namespace%__CalculationProcedureId__r.Name": "Sample Attribute Based Pricing (Quote)",
            "%vlocity_namespace%__VersionNumber__c": 1,
            "VlocityDataPackType": "VlocityMatchingKeyObject",
            "VlocityMatchingRecordSourceKey": "%vlocity_namespace%__CalculationProcedureVersion__c/1/%vlocity_namespace%__CalculationProcedure__c/Sample Attribute Based Pricing (Quote)",
            "VlocityRecordSObjectType": "%vlocity_namespace%__CalculationProcedureVersion__c"
        },
        "%vlocity_namespace%__Function__c": "Calculation",
        "%vlocity_namespace%__Input__c": "[{\"name\":\"OneTimeManualDiscountPercent\",\"dataType\":\"Percent\"}]",
        "%vlocity_namespace%__IsIncludedInResult__c": true,
        "%vlocity_namespace%__OutputJSON__c": "{\"name\":\"OneTimeCalculatedPrice\",\"dataType\":\"Currency\",\"alias\":\"OneTimeCalculatedPrice\"}",
        "%vlocity_namespace%__OutputMappingJSON__c": "{\"OneTimeCalculatedPrice\":\"OneTimeCalculatedPrice\"}",
        "%vlocity_namespace%__Sequence__c": 2,
        "VlocityDataPackType": "SObject",
        "VlocityRecordSObjectType": "%vlocity_namespace%__CalculationProcedureStep__c"
    },
    {
        "%vlocity_namespace%__CalculationFormulaTags__c": "[{\"text\":\"OneTimeCalculatedPrice\",\"alias\":\"OneTimeCalculatedPrice\",\"userDefined\":true,\"dataType\":\"Currency\"},{\"text\":\"*\",\"alias\":\"*\"},{\"text\":\"Quantity\",\"alias\":\"Quantity\",\"userDefined\":true,\"dataType\":\"Number\"}]",
        "%vlocity_namespace%__CalculationFormula__c": "OneTimeCalculatedPrice * Quantity",
        "%vlocity_namespace%__CalculationProcedureId__c": {
            "Name": "Sample Attribute Based Pricing (Quote)",
            "VlocityDataPackType": "VlocityMatchingKeyObject",
            "VlocityMatchingRecordSourceKey": "%vlocity_namespace%__CalculationProcedure__c/Sample Attribute Based Pricing (Quote)",
            "VlocityRecordSObjectType": "%vlocity_namespace%__CalculationProcedure__c"
        },
        "%vlocity_namespace%__CalculationProcedureVersionId__c": {
            "%vlocity_namespace%__CalculationProcedureId__r.Name": "Sample Attribute Based Pricing (Quote)",
            "%vlocity_namespace%__VersionNumber__c": 1,
            "VlocityDataPackType": "VlocityMatchingKeyObject",
            "VlocityMatchingRecordSourceKey": "%vlocity_namespace%__CalculationProcedureVersion__c/1/%vlocity_namespace%__CalculationProcedure__c/Sample Attribute Based Pricing (Quote)",
            "VlocityRecordSObjectType": "%vlocity_namespace%__CalculationProcedureVersion__c"
        },
        "%vlocity_namespace%__Function__c": "Calculation",
        "%vlocity_namespace%__Input__c": "[{\"name\":\"OneTimeCalculatedPrice\",\"dataType\":\"Currency\"},{\"name\":\"Quantity\",\"dataType\":\"Number\"}]",
        "%vlocity_namespace%__IsIncludedInResult__c": true,
        "%vlocity_namespace%__OutputJSON__c": "{\"name\":\"OneTimeTotal\",\"dataType\":\"Currency\",\"alias\":\"OneTimeTotal\"}",
        "%vlocity_namespace%__OutputMappingJSON__c": "{\"OneTimeTotal\":\"OneTimeTotal\"}",
        "%vlocity_namespace%__Sequence__c": 3,
        "VlocityDataPackType": "SObject",
        "VlocityRecordSObjectType": "%vlocity_namespace%__CalculationProcedureStep__c"
    },
    {
        "%vlocity_namespace%__CalculationFormulaTags__c": "[{\"text\":\"RecurringChargeOverride ( Sample Office Internet Solution Attribute Based Pricing )\",\"alias\":\"SampleOfficeInternetSolutionAttributeBasedPricing__RecurringChargeOverride\",\"userDefined\":false,\"dataType\":\"Currency\"},{\"text\":\"*\",\"alias\":\"*\"},{\"text\":\"(\",\"alias\":\"(\"},{\"text\":\"One\",\"alias\":\"One\"},{\"text\":\"-\",\"alias\":\"-\"},{\"text\":\"RecurringManualDiscountPercent\",\"alias\":\"RecurringManualDiscountPercent\",\"userDefined\":true,\"dataType\":\"Percent\"},{\"text\":\")\",\"alias\":\")\"}]",
        "%vlocity_namespace%__CalculationFormula__c": "SampleOfficeInternetSolutionAttributeBasedPricing__RecurringChargeOverride * ( One - RecurringManualDiscountPercent )",
        "%vlocity_namespace%__CalculationProcedureId__c": {
            "Name": "Sample Attribute Based Pricing (Quote)",
            "VlocityDataPackType": "VlocityMatchingKeyObject",
            "VlocityMatchingRecordSourceKey": "%vlocity_namespace%__CalculationProcedure__c/Sample Attribute Based Pricing (Quote)",
            "VlocityRecordSObjectType": "%vlocity_namespace%__CalculationProcedure__c"
        },
        "%vlocity_namespace%__CalculationProcedureVersionId__c": {
            "%vlocity_namespace%__CalculationProcedureId__r.Name": "Sample Attribute Based Pricing (Quote)",
            "%vlocity_namespace%__VersionNumber__c": 1,
            "VlocityDataPackType": "VlocityMatchingKeyObject",
            "VlocityMatchingRecordSourceKey": "%vlocity_namespace%__CalculationProcedureVersion__c/1/%vlocity_namespace%__CalculationProcedure__c/Sample Attribute Based Pricing (Quote)",
            "VlocityRecordSObjectType": "%vlocity_namespace%__CalculationProcedureVersion__c"
        },
        "%vlocity_namespace%__Function__c": "Calculation",
        "%vlocity_namespace%__Input__c": "[{\"name\":\"RecurringManualDiscountPercent\",\"dataType\":\"Percent\"}]",
        "%vlocity_namespace%__IsIncludedInResult__c": true,
        "%vlocity_namespace%__OutputJSON__c": "{\"name\":\"RecurringCalculatedPrice\",\"dataType\":\"Currency\",\"alias\":\"RecurringCalculatedPrice\"}",
        "%vlocity_namespace%__OutputMappingJSON__c": "{\"RecurringCalculatedPrice\":\"RecurringCalculatedPrice\"}",
        "%vlocity_namespace%__Sequence__c": 4,
        "VlocityDataPackType": "SObject",
        "VlocityRecordSObjectType": "%vlocity_namespace%__CalculationProcedureStep__c"
    },
    {
        "%vlocity_namespace%__CalculationFormulaTags__c": "[{\"text\":\"RecurringCalculatedPrice\",\"alias\":\"RecurringCalculatedPrice\",\"userDefined\":true,\"dataType\":\"Currency\"},{\"text\":\"*\",\"alias\":\"*\"},{\"text\":\"Quantity\",\"alias\":\"Quantity\",\"userDefined\":true,\"dataType\":\"Number\"}]",
        "%vlocity_namespace%__CalculationFormula__c": "RecurringCalculatedPrice * Quantity",
        "%vlocity_namespace%__CalculationProcedureId__c": {
            "Name": "Sample Attribute Based Pricing (Quote)",
            "VlocityDataPackType": "VlocityMatchingKeyObject",
            "VlocityMatchingRecordSourceKey": "%vlocity_namespace%__CalculationProcedure__c/Sample Attribute Based Pricing (Quote)",
            "VlocityRecordSObjectType": "%vlocity_namespace%__CalculationProcedure__c"
        },
        "%vlocity_namespace%__CalculationProcedureVersionId__c": {
            "%vlocity_namespace%__CalculationProcedureId__r.Name": "Sample Attribute Based Pricing (Quote)",
            "%vlocity_namespace%__VersionNumber__c": 1,
            "VlocityDataPackType": "VlocityMatchingKeyObject",
            "VlocityMatchingRecordSourceKey": "%vlocity_namespace%__CalculationProcedureVersion__c/1/%vlocity_namespace%__CalculationProcedure__c/Sample Attribute Based Pricing (Quote)",
            "VlocityRecordSObjectType": "%vlocity_namespace%__CalculationProcedureVersion__c"
        },
        "%vlocity_namespace%__Function__c": "Calculation",
        "%vlocity_namespace%__Input__c": "[{\"name\":\"RecurringCalculatedPrice\",\"dataType\":\"Currency\"},{\"name\":\"Quantity\",\"dataType\":\"Number\"}]",
        "%vlocity_namespace%__IsIncludedInResult__c": true,
        "%vlocity_namespace%__OutputJSON__c": "{\"name\":\"RecurringTotal\",\"dataType\":\"Currency\",\"alias\":\"RecurringTotal\"}",
        "%vlocity_namespace%__OutputMappingJSON__c": "{\"RecurringTotal\":\"RecurringTotal\"}",
        "%vlocity_namespace%__Sequence__c": 5,
        "VlocityDataPackType": "SObject",
        "VlocityRecordSObjectType": "%vlocity_namespace%__CalculationProcedureStep__c"
    }
]