{
    "%vlocity_namespace%__ApplicableObject__c": "",
    "%vlocity_namespace%__CalculationProcedureId__c": {
        "Name": "Sample Attribute Based Pricing (Quote)",
        "VlocityDataPackType": "VlocityMatchingKeyObject",
        "VlocityMatchingRecordSourceKey": "%vlocity_namespace%__CalculationProcedure__c/Sample Attribute Based Pricing (Quote)",
        "VlocityRecordSObjectType": "%vlocity_namespace%__CalculationProcedure__c"
    },
    "%vlocity_namespace%__CalculationProcedureId__r.Name": "Sample Attribute Based Pricing (Quote)",
    "%vlocity_namespace%__CalculationProcedureStep__c": "Sample-Attribute-Based-Pricing-Quote_Version_Steps.json",
    "%vlocity_namespace%__Constants__c": "[{\"name\":\"One\",\"value\":\"1\",\"dataType\":\"Number\",\"isEditable\":true,\"userDefined\":true,\"alias\":\"One\"}]",
    "%vlocity_namespace%__CurrentStatus__c": "Active",
    "%vlocity_namespace%__EndDateTime__c": "",
    "%vlocity_namespace%__InputBundleId__c": "",
    "%vlocity_namespace%__OutputBundleId__c": {
        "Name": "SampleQuoteItemOutput",
        "VlocityDataPackType": "VlocityLookupMatchingKeyObject",
        "VlocityLookupRecordSourceKey": "%vlocity_namespace%__DRBundle__c/SampleQuoteItemOutput",
        "VlocityRecordSObjectType": "%vlocity_namespace%__DRBundle__c"
    },
    "%vlocity_namespace%__OutputDataRaptorBundleName__c": "SampleQuoteItemOutput",
    "%vlocity_namespace%__PostProcessorClass__c": "",
    "%vlocity_namespace%__PreProcessorClass__c": "CalcProcPreProcessor",
    "%vlocity_namespace%__Priority__c": 1,
    "%vlocity_namespace%__StartDateTime__c": "2018-02-14T21:42:02.000Z",
    "%vlocity_namespace%__Variables__c": "[{\"name\":\"Product\",\"typeaheadDisplayName\":\"Product\",\"userDefined\":false,\"alias\":\"Product\",\"isEditable\":false,\"dataType\":\"Text\",\"matrixName\":\"Sample Office Internet Solution Attribute Based Pricing\"},{\"name\":\"DownloadSpeed\",\"typeaheadDisplayName\":\"DownloadSpeed\",\"userDefined\":false,\"alias\":\"DownloadSpeed\",\"isEditable\":false,\"dataType\":\"Text\",\"matrixName\":\"Sample Office Internet Solution Attribute Based Pricing\"},{\"name\":\"UploadSpeed\",\"typeaheadDisplayName\":\"UploadSpeed\",\"userDefined\":false,\"alias\":\"UploadSpeed\",\"isEditable\":false,\"dataType\":\"Text\",\"matrixName\":\"Sample Office Internet Solution Attribute Based Pricing\"},{\"name\":\"OneTimeChargeOverride\",\"typeaheadDisplayName\":\"OneTimeChargeOverride ( Sample Office Internet Solution Attribute Based Pricing )\",\"userDefined\":false,\"alias\":\"SampleOfficeInternetSolutionAttributeBasedPricing__OneTimeChargeOverride\",\"isEditable\":false,\"dataType\":\"Currency\",\"matrixName\":\"Sample Office Internet Solution Attribute Based Pricing\"},{\"name\":\"RecurringChargeOverride\",\"typeaheadDisplayName\":\"RecurringChargeOverride ( Sample Office Internet Solution Attribute Based Pricing )\",\"userDefined\":false,\"alias\":\"SampleOfficeInternetSolutionAttributeBasedPricing__RecurringChargeOverride\",\"isEditable\":false,\"dataType\":\"Currency\",\"matrixName\":\"Sample Office Internet Solution Attribute Based Pricing\"},{\"name\":\"OneTimeManualDiscountPercent\",\"dataType\":\"Percent\",\"alias\":\"OneTimeManualDiscountPercent\",\"typeaheadDisplayName\":\"\",\"isEditable\":false,\"userDefined\":true},{\"name\":\"RecurringManualDiscountPercent\",\"dataType\":\"Percent\",\"alias\":\"RecurringManualDiscountPercent\",\"typeaheadDisplayName\":\"\",\"isEditable\":false,\"userDefined\":true},{\"name\":\"OneTimeTotal\",\"dataType\":\"Currency\",\"alias\":\"OneTimeTotal\",\"typeaheadDisplayName\":\"\",\"isEditable\":false,\"userDefined\":true},{\"name\":\"RecurringTotal\",\"dataType\":\"Currency\",\"alias\":\"RecurringTotal\",\"typeaheadDisplayName\":\"\",\"isEditable\":false,\"userDefined\":true},{\"name\":\"OneTimeCalculatedPrice\",\"dataType\":\"Currency\",\"alias\":\"OneTimeCalculatedPrice\",\"typeaheadDisplayName\":\"\",\"isEditable\":false,\"userDefined\":true},{\"name\":\"RecurringCalculatedPrice\",\"dataType\":\"Currency\",\"alias\":\"RecurringCalculatedPrice\",\"typeaheadDisplayName\":\"\",\"isEditable\":false,\"userDefined\":true},{\"name\":\"Quantity\",\"dataType\":\"Number\",\"alias\":\"Quantity\",\"typeaheadDisplayName\":\"\",\"isEditable\":true,\"userDefined\":true}]",
    "%vlocity_namespace%__VersionNumber__c": 1,
    "Name": "Sample Attribute Based Pricing (Quote) V1",
    "VlocityDataPackType": "SObject",
    "VlocityRecordSObjectType": "%vlocity_namespace%__CalculationProcedureVersion__c",
    "VlocityRecordSourceKey": "%vlocity_namespace%__CalculationProcedureVersion__c/1/%vlocity_namespace%__CalculationProcedure__c/Sample Attribute Based Pricing (Quote)"
}