{
    "%vlocity_namespace%__Definition__c": "profile-account-slds.json",
    "%vlocity_namespace%__Type__c": "",
    "Name": "profile-account-slds",
    "VlocityDataPackType": "SObject",
    "VlocityRecordSObjectType": "%vlocity_namespace%__VlocityCard__c",
    "VlocityRecordSourceKey": "%vlocity_namespace%__VlocityCard__c/profile-account-slds"
}