{
    "%vlocity_namespace%__AdditionalResultFields__c": "",
    "%vlocity_namespace%__ContinueSearch__c": false,
    "%vlocity_namespace%__DisplaySequence__c": 1,
    "%vlocity_namespace%__Filter__c": "",
    "%vlocity_namespace%__InteractionCreationBundleName__c": "CreateInteractionForAccount",
    "%vlocity_namespace%__InteractionObjectName__c": "CustomerInteraction",
    "%vlocity_namespace%__InvokeClassName__c": "",
    "%vlocity_namespace%__IsActive__c": true,
    "%vlocity_namespace%__Label__c": "Account",
    "%vlocity_namespace%__NumberOfOptionalVerificationFields__c": 1,
    "%vlocity_namespace%__OptionalVerificationFields__c": "Name,BillingPostalCode,AccountNumber,%vlocity_namespace%__TaxID__c,%vlocity_namespace%__vSLASerialNumber__c",
    "%vlocity_namespace%__PreviousSearchContextIdField__c": "",
    "%vlocity_namespace%__PreviousSearchWidgetName__c": "",
    "%vlocity_namespace%__ReferenceObjectName__c": "",
    "%vlocity_namespace%__ResultFields__c": "Name,BillingStreet,BillingCity,BillingPostalCode",
    "%vlocity_namespace%__ResultUniqueField__c": "",
    "%vlocity_namespace%__ResultVerificationFields__c": "",
    "%vlocity_namespace%__SearchFields__c": "Name,Phone",
    "%vlocity_namespace%__SearchObjectName__c": "Account",
    "%vlocity_namespace%__Type__c": "Caller Identification",
    "Name": "TRNGInteractionAccount",
    "RecordTypeId": "",
    "VlocityDataPackType": "SObject",
    "VlocityRecordSObjectType": "%vlocity_namespace%__VlocitySearchWidgetSetup__c",
    "VlocityRecordSourceKey": "%vlocity_namespace%__VlocitySearchWidgetSetup__c/TRNGInteractionAccount"
}