[
    {
        "%vlocity_namespace%__ActiveFlg__c": true,
        "%vlocity_namespace%__ApplicableToAllRecords__c": false,
        "%vlocity_namespace%__ApplicableToEntity__c": "",
        "%vlocity_namespace%__AttributeCategoryCode__c": "OfficeInternet",
        "%vlocity_namespace%__AttributeCategoryId__c": {
            "%vlocity_namespace%__Code__c": "OfficeInternet",
            "VlocityDataPackType": "VlocityMatchingKeyObject",
            "VlocityMatchingRecordSourceKey": "%vlocity_namespace%__AttributeCategory__c/OfficeInternet",
            "VlocityRecordSObjectType": "%vlocity_namespace%__AttributeCategory__c"
        },
        "%vlocity_namespace%__AttributeCategoryName__c": "Office Internet",
        "%vlocity_namespace%__Code__c": "DownloadSpeed",
        "%vlocity_namespace%__Configurable__c": true,
        "%vlocity_namespace%__CopyMode__c": "",
        "%vlocity_namespace%__CustomConfigUiTemplate__c": "",
        "%vlocity_namespace%__Description__c": "",
        "%vlocity_namespace%__DesignTime__c": "",
        "%vlocity_namespace%__DisplaySequence__c": 1,
        "%vlocity_namespace%__EditMode__c": "",
        "%vlocity_namespace%__EffectiveFromDate__c": "",
        "%vlocity_namespace%__EffectiveUntilDate__c": "",
        "%vlocity_namespace%__Filterable__c": true,
        "%vlocity_namespace%__HelpText__c": "",
        "%vlocity_namespace%__IsCloneable__c": false,
        "%vlocity_namespace%__Overridable__c": "",
        "%vlocity_namespace%__PicklistId__c": "",
        "%vlocity_namespace%__RunTime__c": "",
        "%vlocity_namespace%__UniqueNameField__c": "OfficeInternet.Download Speed",
        "%vlocity_namespace%__ValueType__c": "Text",
        "%vlocity_namespace%__Value__c": "",
        "Name": "Download Speed",
        "VlocityDataPackType": "SObject",
        "VlocityRecordSObjectType": "%vlocity_namespace%__Attribute__c",
        "VlocityRecordSourceKey": "%vlocity_namespace%__Attribute__c/DownloadSpeed"
    },
    {
        "%vlocity_namespace%__ActiveFlg__c": true,
        "%vlocity_namespace%__ApplicableToAllRecords__c": false,
        "%vlocity_namespace%__ApplicableToEntity__c": "",
        "%vlocity_namespace%__AttributeCategoryCode__c": "OfficeInternet",
        "%vlocity_namespace%__AttributeCategoryId__c": {
            "%vlocity_namespace%__Code__c": "OfficeInternet",
            "VlocityDataPackType": "VlocityMatchingKeyObject",
            "VlocityMatchingRecordSourceKey": "%vlocity_namespace%__AttributeCategory__c/OfficeInternet",
            "VlocityRecordSObjectType": "%vlocity_namespace%__AttributeCategory__c"
        },
        "%vlocity_namespace%__AttributeCategoryName__c": "Office Internet",
        "%vlocity_namespace%__Code__c": "UploadSpeed",
        "%vlocity_namespace%__Configurable__c": true,
        "%vlocity_namespace%__CopyMode__c": "",
        "%vlocity_namespace%__CustomConfigUiTemplate__c": "",
        "%vlocity_namespace%__Description__c": "",
        "%vlocity_namespace%__DesignTime__c": "",
        "%vlocity_namespace%__DisplaySequence__c": 2,
        "%vlocity_namespace%__EditMode__c": "",
        "%vlocity_namespace%__EffectiveFromDate__c": "",
        "%vlocity_namespace%__EffectiveUntilDate__c": "",
        "%vlocity_namespace%__Filterable__c": true,
        "%vlocity_namespace%__HelpText__c": "",
        "%vlocity_namespace%__IsCloneable__c": false,
        "%vlocity_namespace%__Overridable__c": "",
        "%vlocity_namespace%__PicklistId__c": "",
        "%vlocity_namespace%__RunTime__c": "",
        "%vlocity_namespace%__UniqueNameField__c": "OfficeInternet.Upload Speed",
        "%vlocity_namespace%__ValueType__c": "Text",
        "%vlocity_namespace%__Value__c": "",
        "Name": "Upload Speed",
        "VlocityDataPackType": "SObject",
        "VlocityRecordSObjectType": "%vlocity_namespace%__Attribute__c",
        "VlocityRecordSourceKey": "%vlocity_namespace%__Attribute__c/UploadSpeed"
    }
]