{
    "%vlocity_namespace%__ApprovedBy__c": "",
    "%vlocity_namespace%__ApprovedOn__c": "",
    "%vlocity_namespace%__CategoryData__c": "",
    "%vlocity_namespace%__ChangeDetectorImplementation__c": "",
    "%vlocity_namespace%__ClassId__c": "",
    "%vlocity_namespace%__EffectiveDate__c": "",
    "%vlocity_namespace%__EndDate__c": "",
    "%vlocity_namespace%__GlobalKey__c": "",
    "%vlocity_namespace%__HeaderData__c": "",
    "%vlocity_namespace%__HelpText__c": "",
    "%vlocity_namespace%__IsConfigurable__c": false,
    "%vlocity_namespace%__IsLocationDependent__c": false,
    "%vlocity_namespace%__IsNotAssetizable__c": false,
    "%vlocity_namespace%__IsOrderable__c": false,
    "%vlocity_namespace%__Modification__c": "",
    "%vlocity_namespace%__ObjectTypeId__c": "",
    "%vlocity_namespace%__ParentClassId__c": "",
    "%vlocity_namespace%__ProductSpecId__c": "",
    "%vlocity_namespace%__ProductTemplateProductId__c": "",
    "%vlocity_namespace%__Scope__c": "",
    "%vlocity_namespace%__SpecificationType__c": "",
    "%vlocity_namespace%__StandardPremium__c": "",
    "%vlocity_namespace%__Status__c": "",
    "%vlocity_namespace%__SubType__c": "",
    "%vlocity_namespace%__TimeToLive__c": "",
    "%vlocity_namespace%__TrackAsAgreement__c": false,
    "%vlocity_namespace%__Type__c": "",
    "%vlocity_namespace%__VendorAccountId__c": "",
    "AccessConfiguration__c": "",
    "AccessId__c": "",
    "AccessSpeed__c": "",
    "Access_Type__c": "",
    "Alteration__c": "",
    "Auto_Recurrance__c": false,
    "CPESupplier__c": "",
    "CanUseQuantitySchedule": true,
    "CanUseRevenueSchedule": true,
    "Category__c": "",
    "ChargeZone__c": "",
    "ClassOfService__c": "",
    "Color__c": "",
    "ContractTerm__c": "",
    "Description": "Our reliable, sophisticated business phone technology provides your business with advantages that you can't get from the phone company, including over 30 advanced calling features that keep you connected whether you're in the office or on the go. Plus, with a variety of long distance packages, including unlimited long distance, and low affordable rates, we have the right solution for your business and Fiber.",
    "DesignCode__c": "",
    "EquipmentPaymentOption__c": "",
    "ExcessUsageModel__c": "",
    "Family": "",
    "GrantMeasurementType__c": "",
    "GrantUnits__c": "",
    "Grant_Amount_Limit__c": "",
    "Grant_Period_Units__c": "",
    "Grant_Type__c": "",
    "Grant_Value__c": "",
    "Image__c": "",
    "InternetAccessType__c": "",
    "IsActive": true,
    "IsBoltOn__c": false,
    "ManagementLevel__c": "",
    "MemorySize__c": "",
    "MulticastSpeed__c": "",
    "Name": "Business Phone+ and Fiber",
    "NetworkId__c": "",
    "NumberOfQuantityInstallments": "",
    "NumberOfRevenueInstallments": "",
    "OLO_Name__c": "",
    "PhoneNumber__c": "",
    "PortId__c": "",
    "ProductCode": "Business_Phone_Fiber",
    "QuantityInstallmentPeriod": "",
    "QuantityScheduleType": "",
    "RecordTypeId": "",
    "RedeemableCode__c": "",
    "RevenueInstallmentPeriod": "",
    "RevenueScheduleType": "",
    "RoamingRegions__c": "",
    "Rollover__c": "",
    "SecretNumber__c": "",
    "ServiceAssuranceLevel__c": "",
    "ServiceID__c": "",
    "ServiceState__c": "",
    "Shareable__c": "",
    "TimePlan__c": "",
    "Valid_Grant_Period__c": "",
    "Valid_Period_Units__c": "",
    "VendorName__c": "",
    "VlocityDataPackType": "SObject",
    "VlocityRecordSObjectType": "Product2",
    "VlocityRecordSourceKey": "VlocityRecordSourceKey:01t7F000003M6O0QAK"
}