{
    "%vlocity_namespace%__ChildLineNumber__c": "1",
    "%vlocity_namespace%__ChildProductId__c": {
        "Name": "Unlimited talk and text",
        "VlocityDataPackType": "VlocityLookupMatchingKeyObject",
        "VlocityLookupRecordSourceKey": "VlocityRecordSourceKey:01t7F000003M6OPQA0",
        "VlocityRecordSObjectType": "Product2"
    },
    "%vlocity_namespace%__ChildProductId__r.Name": "Unlimited talk and text",
    "%vlocity_namespace%__CollapseHierarchy__c": false,
    "%vlocity_namespace%__GlobalKey__c": "",
    "%vlocity_namespace%__IsOverride__c": false,
    "%vlocity_namespace%__IsRootProductChildItem__c": false,
    "%vlocity_namespace%__IsVirtualItem__c": false,
    "%vlocity_namespace%__MaxQuantity__c": 1,
    "%vlocity_namespace%__MaximumChildItemQuantity__c": "",
    "%vlocity_namespace%__MinMaxDefaultQty__c": "1, 1, 1",
    "%vlocity_namespace%__MinQuantity__c": 1,
    "%vlocity_namespace%__MinimumChildItemQuantity__c": "",
    "%vlocity_namespace%__ParentProductId__c": {
        "Name": "Individual Simple Choice Plan",
        "VlocityDataPackType": "VlocityLookupMatchingKeyObject",
        "VlocityLookupRecordSourceKey": "VlocityRecordSourceKey:01t7F000003M6NRQA0",
        "VlocityRecordSObjectType": "Product2"
    },
    "%vlocity_namespace%__ParentProductId__r.Name": "Individual Simple Choice Plan",
    "%vlocity_namespace%__Quantity__c": 1,
    "%vlocity_namespace%__RelationshipType__c": "",
    "%vlocity_namespace%__SelectionMethodImplementation__c": "",
    "%vlocity_namespace%__SeqNumber__c": 1,
    "Name": "Unlimited talk and text",
    "VlocityDataPackType": "SObject",
    "VlocityRecordSObjectType": "%vlocity_namespace%__ProductChildItem__c",
    "VlocityRecordSourceKey": "VlocityRecordSourceKey:a0o7F0000001nENQAY"
}