{
    "%vlocity_namespace%__Definition__c": "Appointment.json",
    "%vlocity_namespace%__Type__c": "",
    "Name": "Appointment",
    "VlocityDataPackType": "SObject",
    "VlocityRecordSObjectType": "%vlocity_namespace%__VlocityCard__c",
    "VlocityRecordSourceKey": "%vlocity_namespace%__VlocityCard__c/Appointment"
}