{
    "%vlocity_namespace%__AdditionalResultFields__c": "AccountId",
    "%vlocity_namespace%__ContinueSearch__c": false,
    "%vlocity_namespace%__DisplaySequence__c": 2,
    "%vlocity_namespace%__Filter__c": "",
    "%vlocity_namespace%__InteractionCreationBundleName__c": "CreateInteractionForContact",
    "%vlocity_namespace%__InteractionObjectName__c": "CustomerInteraction",
    "%vlocity_namespace%__InvokeClassName__c": "",
    "%vlocity_namespace%__IsActive__c": false,
    "%vlocity_namespace%__Label__c": "Agent",
    "%vlocity_namespace%__NumberOfOptionalVerificationFields__c": "",
    "%vlocity_namespace%__OptionalVerificationFields__c": "",
    "%vlocity_namespace%__PreviousSearchContextIdField__c": "",
    "%vlocity_namespace%__PreviousSearchWidgetName__c": "",
    "%vlocity_namespace%__ReferenceObjectName__c": "",
    "%vlocity_namespace%__ResultFields__c": "Name,MailingStreet,Email",
    "%vlocity_namespace%__ResultUniqueField__c": "",
    "%vlocity_namespace%__ResultVerificationFields__c": "Name,MailingPostalCode,BirthDate",
    "%vlocity_namespace%__SearchFields__c": "FirstName,LastName",
    "%vlocity_namespace%__SearchObjectName__c": "Contact",
    "%vlocity_namespace%__Type__c": "Caller Identification",
    "Name": "InteractionContact",
    "RecordTypeId": {
        "DeveloperName": "ObjectBased",
        "SobjectType": "%vlocity_namespace%__VlocitySearchWidgetSetup__c",
        "VlocityDataPackType": "VlocityLookupMatchingKeyObject",
        "VlocityLookupRecordSourceKey": "RecordType/%vlocity_namespace%__VlocitySearchWidgetSetup__c/ObjectBased",
        "VlocityRecordSObjectType": "RecordType"
    },
    "VlocityDataPackType": "SObject",
    "VlocityRecordSObjectType": "%vlocity_namespace%__VlocitySearchWidgetSetup__c",
    "VlocityRecordSourceKey": "%vlocity_namespace%__VlocitySearchWidgetSetup__c/InteractionContact"
}