[
    {
        "%vlocity_namespace%__ActiveFlg__c": true,
        "%vlocity_namespace%__ApplicableToAllRecords__c": false,
        "%vlocity_namespace%__ApplicableToEntity__c": "",
        "%vlocity_namespace%__AttributeCategoryCode__c": "C-CO",
        "%vlocity_namespace%__AttributeCategoryId__c": {
            "%vlocity_namespace%__Code__c": "C-CO",
            "VlocityDataPackType": "VlocityMatchingKeyObject",
            "VlocityMatchingRecordSourceKey": "%vlocity_namespace%__AttributeCategory__c/C-CO",
            "VlocityRecordSObjectType": "%vlocity_namespace%__AttributeCategory__c"
        },
        "%vlocity_namespace%__AttributeCategoryName__c": "TV Programming",
        "%vlocity_namespace%__Code__c": "ATTRIBUTE-105",
        "%vlocity_namespace%__Configurable__c": true,
        "%vlocity_namespace%__CopyMode__c": "",
        "%vlocity_namespace%__CustomConfigUiTemplate__c": "",
        "%vlocity_namespace%__Description__c": "",
        "%vlocity_namespace%__DesignTime__c": "",
        "%vlocity_namespace%__DisplaySequence__c": 1,
        "%vlocity_namespace%__EditMode__c": "",
        "%vlocity_namespace%__EffectiveFromDate__c": "",
        "%vlocity_namespace%__EffectiveUntilDate__c": "",
        "%vlocity_namespace%__Filterable__c": true,
        "%vlocity_namespace%__HelpText__c": "",
        "%vlocity_namespace%__IsCloneable__c": false,
        "%vlocity_namespace%__Overridable__c": "",
        "%vlocity_namespace%__PicklistId__c": "",
        "%vlocity_namespace%__RunTime__c": "",
        "%vlocity_namespace%__UniqueNameField__c": "C-CO.Content",
        "%vlocity_namespace%__ValueType__c": "",
        "%vlocity_namespace%__Value__c": "",
        "Name": "Content",
        "VlocityDataPackType": "SObject",
        "VlocityRecordSObjectType": "%vlocity_namespace%__Attribute__c",
        "VlocityRecordSourceKey": "%vlocity_namespace%__Attribute__c/ATTRIBUTE-105"
    },
    {
        "%vlocity_namespace%__ActiveFlg__c": true,
        "%vlocity_namespace%__ApplicableToAllRecords__c": false,
        "%vlocity_namespace%__ApplicableToEntity__c": "",
        "%vlocity_namespace%__AttributeCategoryCode__c": "C-CO",
        "%vlocity_namespace%__AttributeCategoryId__c": {
            "%vlocity_namespace%__Code__c": "C-CO",
            "VlocityDataPackType": "VlocityMatchingKeyObject",
            "VlocityMatchingRecordSourceKey": "%vlocity_namespace%__AttributeCategory__c/C-CO",
            "VlocityRecordSObjectType": "%vlocity_namespace%__AttributeCategory__c"
        },
        "%vlocity_namespace%__AttributeCategoryName__c": "TV Programming",
        "%vlocity_namespace%__Code__c": "ATTRIBUTE-106",
        "%vlocity_namespace%__Configurable__c": true,
        "%vlocity_namespace%__CopyMode__c": "",
        "%vlocity_namespace%__CustomConfigUiTemplate__c": "",
        "%vlocity_namespace%__Description__c": "",
        "%vlocity_namespace%__DesignTime__c": "",
        "%vlocity_namespace%__DisplaySequence__c": 1,
        "%vlocity_namespace%__EditMode__c": "",
        "%vlocity_namespace%__EffectiveFromDate__c": "",
        "%vlocity_namespace%__EffectiveUntilDate__c": "",
        "%vlocity_namespace%__Filterable__c": false,
        "%vlocity_namespace%__HelpText__c": "",
        "%vlocity_namespace%__IsCloneable__c": false,
        "%vlocity_namespace%__Overridable__c": "",
        "%vlocity_namespace%__PicklistId__c": "",
        "%vlocity_namespace%__RunTime__c": "",
        "%vlocity_namespace%__UniqueNameField__c": "C-CO.Decoder",
        "%vlocity_namespace%__ValueType__c": "",
        "%vlocity_namespace%__Value__c": "",
        "Name": "Decoder",
        "VlocityDataPackType": "SObject",
        "VlocityRecordSObjectType": "%vlocity_namespace%__Attribute__c",
        "VlocityRecordSourceKey": "%vlocity_namespace%__Attribute__c/ATTRIBUTE-106"
    },
    {
        "%vlocity_namespace%__ActiveFlg__c": true,
        "%vlocity_namespace%__ApplicableToAllRecords__c": false,
        "%vlocity_namespace%__ApplicableToEntity__c": "",
        "%vlocity_namespace%__AttributeCategoryCode__c": "C-CO",
        "%vlocity_namespace%__AttributeCategoryId__c": {
            "%vlocity_namespace%__Code__c": "C-CO",
            "VlocityDataPackType": "VlocityMatchingKeyObject",
            "VlocityMatchingRecordSourceKey": "%vlocity_namespace%__AttributeCategory__c/C-CO",
            "VlocityRecordSObjectType": "%vlocity_namespace%__AttributeCategory__c"
        },
        "%vlocity_namespace%__AttributeCategoryName__c": "TV Programming",
        "%vlocity_namespace%__Code__c": "ATTRIBUTE-107",
        "%vlocity_namespace%__Configurable__c": true,
        "%vlocity_namespace%__CopyMode__c": "",
        "%vlocity_namespace%__CustomConfigUiTemplate__c": "",
        "%vlocity_namespace%__Description__c": "",
        "%vlocity_namespace%__DesignTime__c": "",
        "%vlocity_namespace%__DisplaySequence__c": 1,
        "%vlocity_namespace%__EditMode__c": "",
        "%vlocity_namespace%__EffectiveFromDate__c": "",
        "%vlocity_namespace%__EffectiveUntilDate__c": "",
        "%vlocity_namespace%__Filterable__c": true,
        "%vlocity_namespace%__HelpText__c": "",
        "%vlocity_namespace%__IsCloneable__c": false,
        "%vlocity_namespace%__Overridable__c": "",
        "%vlocity_namespace%__PicklistId__c": "",
        "%vlocity_namespace%__RunTime__c": "",
        "%vlocity_namespace%__UniqueNameField__c": "C-CO.Language",
        "%vlocity_namespace%__ValueType__c": "",
        "%vlocity_namespace%__Value__c": "",
        "Name": "Language",
        "VlocityDataPackType": "SObject",
        "VlocityRecordSObjectType": "%vlocity_namespace%__Attribute__c",
        "VlocityRecordSourceKey": "%vlocity_namespace%__Attribute__c/ATTRIBUTE-107"
    },
    {
        "%vlocity_namespace%__ActiveFlg__c": true,
        "%vlocity_namespace%__ApplicableToAllRecords__c": false,
        "%vlocity_namespace%__ApplicableToEntity__c": "",
        "%vlocity_namespace%__AttributeCategoryCode__c": "C-CO",
        "%vlocity_namespace%__AttributeCategoryId__c": {
            "%vlocity_namespace%__Code__c": "C-CO",
            "VlocityDataPackType": "VlocityMatchingKeyObject",
            "VlocityMatchingRecordSourceKey": "%vlocity_namespace%__AttributeCategory__c/C-CO",
            "VlocityRecordSObjectType": "%vlocity_namespace%__AttributeCategory__c"
        },
        "%vlocity_namespace%__AttributeCategoryName__c": "TV Programming",
        "%vlocity_namespace%__Code__c": "ATTRIBUTE-108",
        "%vlocity_namespace%__Configurable__c": true,
        "%vlocity_namespace%__CopyMode__c": "",
        "%vlocity_namespace%__CustomConfigUiTemplate__c": "",
        "%vlocity_namespace%__Description__c": "",
        "%vlocity_namespace%__DesignTime__c": "",
        "%vlocity_namespace%__DisplaySequence__c": 1,
        "%vlocity_namespace%__EditMode__c": "",
        "%vlocity_namespace%__EffectiveFromDate__c": "",
        "%vlocity_namespace%__EffectiveUntilDate__c": "",
        "%vlocity_namespace%__Filterable__c": true,
        "%vlocity_namespace%__HelpText__c": "",
        "%vlocity_namespace%__IsCloneable__c": false,
        "%vlocity_namespace%__Overridable__c": "",
        "%vlocity_namespace%__PicklistId__c": "",
        "%vlocity_namespace%__RunTime__c": "",
        "%vlocity_namespace%__UniqueNameField__c": "C-CO.Demographic",
        "%vlocity_namespace%__ValueType__c": "",
        "%vlocity_namespace%__Value__c": "",
        "Name": "Demographic",
        "VlocityDataPackType": "SObject",
        "VlocityRecordSObjectType": "%vlocity_namespace%__Attribute__c",
        "VlocityRecordSourceKey": "%vlocity_namespace%__Attribute__c/ATTRIBUTE-108"
    },
    {
        "%vlocity_namespace%__ActiveFlg__c": true,
        "%vlocity_namespace%__ApplicableToAllRecords__c": false,
        "%vlocity_namespace%__ApplicableToEntity__c": "",
        "%vlocity_namespace%__AttributeCategoryCode__c": "C-CO",
        "%vlocity_namespace%__AttributeCategoryId__c": {
            "%vlocity_namespace%__Code__c": "C-CO",
            "VlocityDataPackType": "VlocityMatchingKeyObject",
            "VlocityMatchingRecordSourceKey": "%vlocity_namespace%__AttributeCategory__c/C-CO",
            "VlocityRecordSObjectType": "%vlocity_namespace%__AttributeCategory__c"
        },
        "%vlocity_namespace%__AttributeCategoryName__c": "TV Programming",
        "%vlocity_namespace%__Code__c": "ATTRIBUTE-109",
        "%vlocity_namespace%__Configurable__c": true,
        "%vlocity_namespace%__CopyMode__c": "",
        "%vlocity_namespace%__CustomConfigUiTemplate__c": "",
        "%vlocity_namespace%__Description__c": "",
        "%vlocity_namespace%__DesignTime__c": "",
        "%vlocity_namespace%__DisplaySequence__c": 1,
        "%vlocity_namespace%__EditMode__c": "",
        "%vlocity_namespace%__EffectiveFromDate__c": "",
        "%vlocity_namespace%__EffectiveUntilDate__c": "",
        "%vlocity_namespace%__Filterable__c": true,
        "%vlocity_namespace%__HelpText__c": "",
        "%vlocity_namespace%__IsCloneable__c": false,
        "%vlocity_namespace%__Overridable__c": "",
        "%vlocity_namespace%__PicklistId__c": "",
        "%vlocity_namespace%__RunTime__c": "",
        "%vlocity_namespace%__UniqueNameField__c": "C-CO.Service Type",
        "%vlocity_namespace%__ValueType__c": "",
        "%vlocity_namespace%__Value__c": "",
        "Name": "Service Type",
        "VlocityDataPackType": "SObject",
        "VlocityRecordSObjectType": "%vlocity_namespace%__Attribute__c",
        "VlocityRecordSourceKey": "%vlocity_namespace%__Attribute__c/ATTRIBUTE-109"
    }
]